<?xml version="1.0" standalone="no"?>
<!DOCTYPE svg PUBLIC "-//W3C//DTD SVG 1.1//EN"
  "http://www.w3.org/Graphics/SVG/1.1/DTD/svg11.dtd">
<svg width="142mm" height="102mm" viewBox="-71 -51 142 102" xmlns="http://www.w3.org/2000/svg" version="1.1">
	<title>svgOutput</title>
	<desc>made with tinkercad</desc>
<path d="M -25 50 L -25 29.25 L -70 29.25 L -70 -28.25 L -25 -28.25 L -25 -50 L 25 -50 L 25 -28.25 L 70 -28.25 L 70 29.25 L 25 29.25 L 25 50 L -25 50 z" fill="none" stroke="rgb(255,0,0)" stroke-width="0.001mm" />
</svg>